Abby Hahs - Strings and Regular Expressions
…
trump_tweets2 |>
  select(text) |>
  mutate(n_capitals = str_count(text, "\\b[A-Z][A-Z][A-Z][A-Z]\\b")) |>
  filter(n_capitals > 0)

# A tibble: 3,385 × 2
   text                                                               n_capitals
   <chr>                                                                   <int>
 1 "HUGE win today for the United States and for peace in the world.…          1
 2 "11 DAYS! #MAGA https://t.co/PuqeF1ctDs"                                    2
 3 "THANK YOU OHIO! #VOTE \nhttps://t.co/5EJjFZVLHZ"                           2
 4 "How can you certify an election when the numbers being certified…          1
 5 "Polls numbers are looking very strong. Big crowds, great enthusi…          1
 6 "Thank you LIBERTARIANS. We are getting it all done, and FAST! VO…          2
 7 "...AND I WON THE ELECTION. VOTER FRAUD ALL OVER THE COUNTRY! htt…          1
 8 "Thank you OHIO! #VOTE\nhttps://t.co/gsFSghkmdM https://t.co/oOzm…          2
 9 "I strongly stand with Kelly & David. They are both great and MUS…          1
10 "Georgia, get out and VOTE for two great Senators, @KLoeffler and…          1
# ℹ 3,375 more rows
…
trump_tweets2 |>
  select(text, favorites, retweets) |>
  mutate(ats = str_extract(text, "@")) |>
  filter(ats != "NA")

# A tibble: 4,608 × 4
   text                                                 favorites retweets ats  
   <chr>                                                    <dbl>    <dbl> <chr>
 1 "Nevada is turning out to be a cesspool of Fake Vot…    363489    78378 @    
 2 "Wisconsin is looking very good. Needs a little tim…    347994    61006 @    
 3 "How can you certify an election when the numbers b…    211508    56945 @    
 4 "“We’ve seen in the last few months, unprecedented …    249177    53966 @    
 5 "“We are not acting to thwart the Democratic proces…    272308    60779 @    
 6 "Very good reviews on last night’s @NBCNews Town Ha…    148717    23968 @    
 7 "This is good news, it means I won! \ncc: @RepDougC…    258866    55635 @    
 8 "As I have long said, @Pfizer and the others would …    292245    59870 @    
 9 ".@FoxNews, @QuinnipiacPoll, ABC/WaPo, NBC/WSJ were…    254530    53987 @    
10 "Pleased to announce that @KLoeffler & @sendavidper…    177332    42347 @    
# ℹ 4,598 more rows
…
