Abby Hahs - Wisconsin Districts
…
Skipping install of 'fec16' from a github remote, the SHA1 (8d44b32a) has not changed since last install.
  Use `force = TRUE` to force installation

library(fec16)

src <- "http://cdmaps.polisci.ucla.edu/shp/districts113.zip"
lcl_zip <- fs::path(tempdir(), "districts113.zip")
download.file(src, destfile = lcl_zip)
lcl_districts <- fs::path(tempdir(), "districts113")
unzip(lcl_zip, exdir = lcl_districts)
dsn_districts <- fs::path(lcl_districts, "districtShapes")

print(results_house, width = Inf)

# A tibble: 2,110 × 13
   state district_id cand_id   incumbent party primary_votes primary_percent
   <chr> <chr>       <chr>     <lgl>     <chr>         <dbl>           <dbl>
 1 AL    01          H4AL01123 TRUE      REP           71310          0.601 
 2 AL    01          H6AL01060 FALSE     REP           47319          0.399 
 3 AL    02          H0AL02087 TRUE      REP           78689          0.664 
 4 AL    02          H6AL02142 FALSE     REP           33015          0.278 
 5 AL    02          H6AL02159 FALSE     REP            6856          0.0578
 6 AL    02          H6AL02167 FALSE     DEM              NA         NA     
 7 AL    03          H2AL03032 TRUE      REP           77432          0.760 
 8 AL    03          H6AL03157 FALSE     REP           24474          0.240 
 9 AL    03          H4AL03061 FALSE     DEM              NA         NA     
10 AL    04          H6AL04098 TRUE      REP           86660          0.812 
   runoff_votes runoff_percent general_votes general_percent won   footnotes
          <dbl>          <dbl>         <dbl>           <dbl> <lgl> <chr>    
 1           NA             NA        208083           0.964 TRUE  <NA>     
 2           NA             NA            NA          NA     FALSE <NA>     
 3           NA             NA        134886           0.488 TRUE  <NA>     
 4           NA             NA            NA          NA     FALSE <NA>     
 5           NA             NA            NA          NA     FALSE <NA>     
 6           NA             NA        112089           0.405 FALSE <NA>     
 7           NA             NA        192164           0.669 TRUE  <NA>     
 8           NA             NA            NA          NA     FALSE <NA>     
 9           NA             NA         94549           0.329 FALSE <NA>     
10           NA             NA        235925           0.985 TRUE  <NA>     
# ℹ 2,100 more rows

results_house |>
  group_by(state, district_id) |>
  summarize(N = n())

`summarise()` has grouped output by 'state'. You can override using the
`.groups` argument.

# A tibble: 445 × 3
# Groups:   state [56]
   state district_id     N
   <chr> <chr>       <int>
 1 AK    00             12
 2 AL    01              2
 3 AL    02              4
 4 AL    03              3
 5 AL    04              2
 6 AL    05              2
 7 AL    06              2
 8 AL    07              1
 9 AR    01              2
10 AR    02              4
# ℹ 435 more rows
…
